[
  {
    "Country":"Afghanistan",
    "Capital":"Kabul",
    "Latitude":25.76500500,
    "Longitude":-80.24379700
  },
  {
    "Country":"Albania",
    "Capital":"Tirana",
    "Latitude":26.13793600,
    "Longitude":-80.13943500
  },
  {
    "Country":"Algeria",
    "Capital":"Algiers",
    "Latitude":26.00998700,
    "Longitude":80.29447200
  },
  {
    "Country":"American Samoa",
    "Capital":"Pago Pago",
    "Latitude":25.73629600,
    "Longitude":-80.24479700
  },
  {
    "Country":"Andorra",
    "Capital":"Andorra la Vella",
    "Latitude":25.88674000,
    "Longitude":-80.16329200
  }
]